…
In this post I am going to analyse my departmental Whatsapp chat group “Statistics Class of 2019”. Thanks to a special package called rwhatsapp, this allows us to work with Whatsapp text data in R. We are also going to perform some text mining using the tidytext package.

#load libraries
library(rwhatsapp)
library(tidyverse)

#load data
chat <- rwa_read("C:/Users/Adejumo/Downloads/whatsapp.txt") %>% 
  #remove messages without author
  filter(!is.na(author))

chat

## # A tibble: 403 x 6
##    time                author            text        source     emoji emoji_name
##    <dttm>              <fct>             <chr>       <chr>      <lis> <list>    
##  1 2021-10-17 14:13:02 +234 703 857 6887 "\U0001f60~ C:/Users/~ <chr~ <chr [1]> 
##  2 2021-10-17 14:13:02 +234 703 857 6887 "Don't men~ C:/Users/~ <chr~ <chr [1]> 
##  3 2021-10-17 14:30:02 Don Sepa          "Congratul~ C:/Users/~ <NUL~ <NULL>    
##  4 2021-10-17 15:40:02 Jagaban           "<Media om~ C:/Users/~ <NUL~ <NULL>    
##  5 2021-10-17 15:42:02 +234 703 857 6887 "<U+2764><U+FE0F>"         C:/Users/~ <chr~ <chr [1]> 
##  6 2021-10-17 15:46:02 +234 816 195 5210 "Congratul~ C:/Users/~ <NUL~ <NULL>    
##  7 2021-10-17 15:51:02 Sobah             "Congratul~ C:/Users/~ <NUL~ <NULL>    
##  8 2021-10-17 15:51:02 Zahra             "Congrats ~ C:/Users/~ <NUL~ <NULL>    
##  9 2021-10-17 15:52:02 +234 706 590 8705 "<Media om~ C:/Users/~ <NUL~ <NULL>    
## 10 2021-10-17 15:52:02 +234 813 737 2046 "This mess~ C:/Users/~ <NUL~ <NULL>    
## # ... with 393 more rows
…
